4_study1plots
…
Geom jitter plot:

clean_data %>%
  mutate(group = factor(group,
                        levels = c(1, 2),
                        labels = c("Gain", "Loss")))

## # A tibble: 145 x 7
##    response_id       group perception_1 mean_att mean_int manipulation_check_gf
##    <chr>             <fct>        <dbl>    <dbl>    <dbl>                  <dbl>
##  1 R_2fsbx6X9kJiMG7r <NA>          3.97     4.32     4                      2   
##  2 R_1in7f4Jp3Wr4ZCR <NA>          4.01     4.47     4.23                   5   
##  3 R_rlMEtmE7PHYEorD <NA>          4.41     4.81     4.49                   4.19
##  4 R_3OqeGs3Vcy4IJqn <NA>          3.95     4.28     4.13                   4.76
##  5 R_1jBQKrZZ7sfVc8m <NA>          5        5        4                      5   
##  6 R_2zu9GM5yOeZOpR5 <NA>          5        4.67     4.34                   5   
##  7 R_1pKYQ5ajvl4VbnL <NA>          4.5      5        5                      4.79
##  8 R_7UP7oPuOcUg9hLj <NA>          5        4.59     4.30                   4.04
##  9 R_CkuXoqzfslJE6op <NA>          4.92     4.74     4.90                   5   
## 10 R_1dbrKj3vv3e6xQU <NA>          4.03     4.48     4.58                   4.97
## #  with 135 more rows, and 1 more variable: manipulation_check_lf_1 <dbl>
…
Geom jitter plot:

clean_data %>%
  mutate(group = factor(group, 
                        levels = c(1, 2),
                        labels = c("Gain", "Loss")))

## # A tibble: 145 x 7
##    response_id       group perception_1 mean_att mean_int manipulation_check_gf
##    <chr>             <fct>        <dbl>    <dbl>    <dbl>                  <dbl>
##  1 R_2fsbx6X9kJiMG7r <NA>          3.97     4.32     4                      2   
##  2 R_1in7f4Jp3Wr4ZCR <NA>          4.01     4.47     4.23                   5   
##  3 R_rlMEtmE7PHYEorD <NA>          4.41     4.81     4.49                   4.19
##  4 R_3OqeGs3Vcy4IJqn <NA>          3.95     4.28     4.13                   4.76
##  5 R_1jBQKrZZ7sfVc8m <NA>          5        5        4                      5   
##  6 R_2zu9GM5yOeZOpR5 <NA>          5        4.67     4.34                   5   
##  7 R_1pKYQ5ajvl4VbnL <NA>          4.5      5        5                      4.79
##  8 R_7UP7oPuOcUg9hLj <NA>          5        4.59     4.30                   4.04
##  9 R_CkuXoqzfslJE6op <NA>          4.92     4.74     4.90                   5   
## 10 R_1dbrKj3vv3e6xQU <NA>          4.03     4.48     4.58                   4.97
## #  with 135 more rows, and 1 more variable: manipulation_check_lf_1 <dbl>
…
Geom jitter plot:

clean_data %>%
  mutate(group = factor(group, 
                        levels = c(1, 2),
                        labels = c("Gain", "Loss")))

## # A tibble: 145 x 7
##    response_id       group perception_1 mean_att mean_int manipulation_check_gf
##    <chr>             <fct>        <dbl>    <dbl>    <dbl>                  <dbl>
##  1 R_2fsbx6X9kJiMG7r <NA>          3.97     4.32     4                      2   
##  2 R_1in7f4Jp3Wr4ZCR <NA>          4.01     4.47     4.23                   5   
##  3 R_rlMEtmE7PHYEorD <NA>          4.41     4.81     4.49                   4.19
##  4 R_3OqeGs3Vcy4IJqn <NA>          3.95     4.28     4.13                   4.76
##  5 R_1jBQKrZZ7sfVc8m <NA>          5        5        4                      5   
##  6 R_2zu9GM5yOeZOpR5 <NA>          5        4.67     4.34                   5   
##  7 R_1pKYQ5ajvl4VbnL <NA>          4.5      5        5                      4.79
##  8 R_7UP7oPuOcUg9hLj <NA>          5        4.59     4.30                   4.04
##  9 R_CkuXoqzfslJE6op <NA>          4.92     4.74     4.90                   5   
## 10 R_1dbrKj3vv3e6xQU <NA>          4.03     4.48     4.58                   4.97
## #  with 135 more rows, and 1 more variable: manipulation_check_lf_1 <dbl>
…
